﻿# Capital City
	capital = 219
# Order of Battle
	oob = "SOV_1936"
# Research Slots
	set_research_slots = 3
# Stability
	set_stability = 0.5
# War Support
	set_war_support = 0.8
# Technology
	set_technology = {
		infantry_weapons = 1
		infantry_weapons1 = 1
		tech_recon = 1
		tech_support = 1		
		tech_engineers = 1
		tech_military_police = 1
		tech_mountaineers = 1
		motorised_infantry = 1
		paratroopers = 1
		gw_artillery = 1
		gwtank = 1
		basic_light_tank = 1  # PLACEHOLDER
		#basic_heavy_tank = 1  # PLACEHOLDER
		#basic_medium_tank = 1 # PLACEHOLDER
		early_fighter = 1
		fighter1 = 1
		early_bomber = 1
		strategic_bomber1 = 1
		naval_bomber1 = 1
		early_submarine = 1
		basic_submarine = 1
		early_destroyer = 1
		early_light_cruiser = 1
		early_heavy_cruiser = 1
		early_battleship = 1
		early_battlecruiser = 1
		transport = 1
		mass_assault = 1
		fleet_in_being = 1
	}
# Diplomacy
	# Factions
		create_faction = Comintern
		add_to_faction = SOV
		add_to_faction = MON
		add_to_faction = TAN
	# Puppets
	# Tech Sharing
# Set Politics
	set_politics = {

		parties = {
			left-wing = {
				popularity = 76.1
			}

			centre = { 
				popularity = 0
			}

			right-wing = {
				popularity = 0
			}

			syncretic = { 
				popularity = 23.9
			}
		}
		
		ruling_party = left-wing
		last_election = "1935.7.2"
		election_frequency = 48
		elections_allowed = no
	}
# Country Leaders
	# Left-Wing
		create_country_leader = {
			name = "Joseph Stalin"
			desc = "SOV_Joseph_Stalin_desc"
			picture = "Portrait_SOV_Joseph_Stalin.dds"
			expire = "1965.1.1"
			ideology = communism
			traits = {
				
			}
		}
	# Centre
		create_country_leader = {
			name = "Alexander Kerensky"
			desc = "SOV_Alexander_Kerensky_desc"
			picture = "Portrait_SOV_Alexander_Kerensky.dds"
			expire = "1965.1.1"
			ideology = social_democracy
			traits = {
				
			}
		}
	# Right-Wing
		create_country_leader = {
			name = "Konstantin Rodzaevsky"
			desc = "SOV_Konstantin_Rodzaevsky_desc"
			picture = "Portrait_SOV_Konstantin_Rodzaevsky.dds"
			expire = "1953.3.1"
			ideology = fascism
			traits = {
				#
			}
		}
	# Syncretic
# Military Leaders
	# Field Marshal(s)
		create_field_marshal = {
			name = "Mikhail Tukhachevsky"
			id = 401
			picture = "Portrait_Soviet_Mikhail_Tukhachevsky.dds"
			traits = {
				brilliant_strategist
				career_officer
				infantry_officer
				offensive_doctrine
				trait_reckless
			}
			skill = 4
			attack_skill = 3
			defense_skill = 4
			planning_skill = 4
			logistics_skill = 2
		}
		create_field_marshal = {
			name = "Grigory Kulik"
			picture = "Portrait_Soviet_Grigory_Kulik.dds"
			traits = {
				career_officer
				inflexible_strategist
				old_guard
				politically_connected
			}
			skill = 1	
			attack_skill = 1
			defense_skill = 1
			planning_skill = 1
			logistics_skill = 1
		}
		create_field_marshal = {
			name = "Kliment Voroshilov"
			id = 405
			picture = "Portrait_Soviet_Kliment_Voroshilov.dds"
			traits = {
				inflexible_strategist
				old_guard
				politically_connected
			}
			skill = 1
			attack_skill = 1
			defense_skill = 1
			planning_skill = 1
			logistics_skill = 1
		}
		create_field_marshal = {
			name = "Semyon Budyonny"
			picture = "Portrait_Soviet_Semyon_Budyonny.dds"
			traits = {
				inflexible_strategist
				old_guard
				politically_connected
			}
			skill = 1
			attack_skill = 1
			defense_skill = 1
			planning_skill = 1
			logistics_skill = 1
		}
	# General(s)
		create_corps_commander = {
			name = "Georgy Zhukov"
			id = 410
			picture = "Portrait_Soviet_Gregory_Zhukov.dds"
			traits = {
				armor_officer
				media_personality
				war_hero
				winter_specialist
			}
			skill = 5
			attack_skill = 5
			defense_skill = 2
			planning_skill = 4
			logistics_skill = 5
		}
		create_corps_commander = {
			name = "Ivan Konev"
			id = 408
			picture = "Portrait_Soviet_Ivan_Konev.dds"
			traits = {
				armor_officer
				harsh_leader
				politically_connected
			}
			skill = 5
			attack_skill = 4
			defense_skill = 5
			planning_skill = 2
			logistics_skill = 5
		}
		create_corps_commander = {
			name = "Aleksandr Vasilevsky"
			id = 407
				picture = "Portrait_Soviet_Aleksandr_Vasilevsky.dds"
			traits = {
				armor_officer
				politically_connected
			}
			skill = 4

			
			attack_skill = 4
			defense_skill = 4
			planning_skill = 3
			logistics_skill = 2
		}
		create_corps_commander = {
			name = "Konstantin Rokossovsky"
			id = 402
			picture = "Portrait_Soviet_Konstantin_Rokossovsky.dds"
			traits = {
				armor_officer
				brilliant_strategist
				trait_cautious
			}
			skill = 4
			attack_skill = 3
			defense_skill = 4
			planning_skill = 2
			logistics_skill = 4
		}
		create_corps_commander = {
			name = "Alexander Gorbatov"
			picture = "Portrait_Soviet_Alexander_Gorbatov.dds"
			traits = {
				career_officer
				cavalry_officer
			}
			skill = 3
			attack_skill = 2
			defense_skill = 3
			planning_skill = 2
			logistics_skill = 3
		}
		create_corps_commander = {
			name = "Andrei Grechko"
			picture = "Portrait_Soviet_Andrei_Antonovich_Grechko.dds"
			traits = {
				cavalry_officer
			}
			skill = 3	
			attack_skill = 1
			defense_skill = 3
			planning_skill = 3
			logistics_skill = 3
		}
		create_corps_commander = {
			name = "Andrey Vlasov"
			id = 412
			picture = "Portrait_Soviet_Andrey_Vlasov.dds"
			traits = {
				infantry_officer
				winter_specialist
			}
			skill = 3
			attack_skill = 3
			defense_skill = 3
			planning_skill = 1
			logistics_skill = 3
		}
		create_corps_commander = {
			name = "Boris Shaposhnikov"
				picture = "Portrait_Soviet_Boris_Shaposhnikov.dds"
			traits = {
				career_officer
				trait_cautious
			}
			skill = 3
			
			attack_skill = 2
			defense_skill = 3
			planning_skill = 2
			logistics_skill = 3
		}
		create_corps_commander = {
			name = "Filipp Golikov"
				picture = "Portrait_Soviet_Filipp_Golikov.dds"
			traits = {
				career_officer
			}
			skill = 3
			attack_skill = 3
			defense_skill = 3
			planning_skill = 3
			logistics_skill = 1
		}
		create_corps_commander = {
			name = "Kirill Meretskov"
				picture = "Portrait_Soviet_Kirill_Meretskov.dds"
			traits = {
				infantry_officer
				trait_reckless
			}
			skill = 3
			attack_skill = 2
			defense_skill = 2
			planning_skill = 3
			logistics_skill = 3
		}
		create_corps_commander = {
			name = "Kirill Moskalenko"
			picture = "Portrait_Soviet_Kirill_Moskalenko.dds"
			traits = {
				#
			}
			skill = 3
			attack_skill = 2
			defense_skill = 2
			planning_skill = 3
			logistics_skill = 3
		}
		create_corps_commander = {
			name = "Leonid Govorov"
			picture = "Portrait_Soviet_Leonid_Govorov.dds"
			traits = {
				#
			}
			skill = 3
			attack_skill = 3
			defense_skill = 2
			planning_skill = 3
			logistics_skill = 2
		}
		create_corps_commander = {
			name = "Maksim Purkayev"
			picture = "Portrait_Soviet_Maksim_Purkayev.dds"
			traits = {
				career_officer
			}
			skill = 3
			attack_skill = 2
			defense_skill = 3
			planning_skill = 2
			logistics_skill = 3
		}
		create_corps_commander = {
			name = "Nikandr Chibisov"
			picture = "Portrait_Soviet_Nikandr_Yevlampyevich_Chibisov.dds"
			traits = {
				trickster
			}
			skill = 3
			attack_skill = 1
			defense_skill = 3
			planning_skill = 3
			logistics_skill = 3
		}
		create_corps_commander = {
			name = "Nikolai Berzarin"
			picture = "Portrait_Soviet_Nikolai_Berzarin.dds"
			traits = {
				infantry_officer
			}
			skill = 3
			attack_skill = 3
			defense_skill = 3
			planning_skill = 2
			logistics_skill = 2
		}
		create_corps_commander = {
			name = "Nikolai Vatutin"
			picture = "Portrait_Soviet_Nikolai_Fyodorovich_Vatutin.dds"
			traits = {
				infantry_officer
				trait_reckless
			}
			skill = 3
			attack_skill = 1
			defense_skill = 3
			planning_skill = 3
			logistics_skill = 3
		}
		create_corps_commander = {
			name = "Semyon Timoshenko"
			id = 404
			picture = "Portrait_Soviet_Semyon_Timoshenko.dds"
			traits = {
				career_officer
				cavalry_officer
				politically_connected
			}
			skill = 3
			attack_skill = 3
			defense_skill = 2
			planning_skill = 2
			logistics_skill = 3
		}
		create_corps_commander = {
			name = "Vasily Kuznetsov"
			picture = "Portrait_Soviet_Vasily_Kuznetsov.dds"
			traits = {
				commando
				infantry_officer
			}
			skill = 3
			attack_skill = 3
			defense_skill = 3
			planning_skill = 2
			logistics_skill = 2
		}
		create_corps_commander = {
			name = "Yakov Cherevichenko"
			picture = "Portrait_Soviet_Yakov_Cherevichenko.dds"
			traits = {
				cavalry_officer
			}
			skill = 3
			attack_skill = 3
			defense_skill = 3
			planning_skill = 2
			logistics_skill = 2
		}
		create_corps_commander = {
			name = "Markian Popov"
			picture = "Portrait_Soviet_Matkian_Popov.dds"
			traits = {
				brilliant_strategist
				infantry_officer
				winter_specialist
			}
			skill = 2
			attack_skill = 2
			defense_skill = 1
			planning_skill = 2
			logistics_skill = 2
		}
		create_corps_commander = {
			name = "Andrey Yeryomenko"
				picture = "Portrait_Soviet_Andrey_Yeryomenko.dds"
			traits = {
				cavalry_officer
				trait_reckless
			}
			skill = 1
			attack_skill = 1
			defense_skill = 1
			planning_skill = 1
			logistics_skill = 1
		}
		create_corps_commander = {
			name = "Dmitry Lelyushenko"
			picture = "Portrait_Soviet_Dmitri_Danilovich_Lelyushenko.dds"
			traits = {
				armor_officer
				trait_reckless
			}
			skill = 1
			attack_skill = 1
			defense_skill = 1
			planning_skill = 1
			logistics_skill = 1
		}
		create_corps_commander = {
			name = "Georgy Zakharov"
			picture = "Portrait_Soviet_Georgiy_Zakharov.dds"
			traits = {
				career_officer
			}
			skill = 1 
			attack_skill = 1
			defense_skill = 1
			planning_skill = 1
			logistics_skill = 1
		}
		create_corps_commander = {
			name = "Issa Pliyev"
			picture = "Portrait_Soviet_Issa_Pliyev.dds"
			traits = {
				cavalry_officer
			}
			skill = 1
			attack_skill = 1
			defense_skill = 1
			planning_skill = 1
			logistics_skill = 1
		}
		create_corps_commander = {
			name = "Ivan Chernyakhovsky"
			picture = "Portrait_Soviet_Ivan_Chernyakhovsky.dds"
			traits = {
				armor_officer
			}
			skill = 1 
			attack_skill = 1
			defense_skill = 1
			planning_skill = 1
			logistics_skill = 1
		}
		create_corps_commander = {
			name = "Ivan Fedyuninsky"
			picture = "Portrait_Soviet_Ivan_Fedyuninsky.dds"
			traits = {
				infantry_officer
			}
			skill = 1
			attack_skill = 1
			defense_skill = 1
			planning_skill = 1
			logistics_skill = 1
		}
		create_corps_commander = {
			name = "Kuzma Galitsky"
			picture = "Portrait_Soviet_Kuzma_Galitsky.dds"
			traits = {
				infantry_officer
			}
			skill = 1 
			attack_skill = 1
			defense_skill = 1
			planning_skill = 1
			logistics_skill = 1
		}
		create_corps_commander = {
			name = "Max Reyter"
			picture = "Portrait_Soviet_Max_Andreyevich.dds"
			traits = {
				career_officer
			}
			skill = 1
			attack_skill = 1
			defense_skill = 1
			planning_skill = 1
			logistics_skill = 1
		}
		create_corps_commander = {
			name = "Rodion Malinovsky"
			picture = "Portrait_Soviet_Rodion_Malinovsky.dds"
			traits = {
				career_officer
				old_guard
				politically_connected
				trait_cautious 
			}
			skill = 1 
			attack_skill = 1
			defense_skill = 1
			planning_skill = 1
			logistics_skill = 1
		}
		create_corps_commander = {
			name = "Vasily Chuikov"
			picture = "Portrait_Soviet_Vasily_Chuikov.dds"
			traits = {
				brilliant_strategist
				career_officer
			}
			skill = 1
			attack_skill = 1
			defense_skill = 1
			planning_skill = 1
			logistics_skill = 1
		}
	# Admiral(s)
		create_navy_leader = {
			name = "Arseniy Golovko"
			id = 409
			picture = "Portrait_Soviet_Arseniy_Golovko.dds"
			traits = {
				spotter
			}
			skill = 4
		}
		create_navy_leader = {
			name = "Sergey Gorshkov"
			id = 411
			picture = "Portrait_Soviet_Sergey_Gorshkov.dds"
			traits = {
				#
			}
			skill = 3
		}
		create_navy_leader = {
			name = "Filipp Oktyabrsky"
			picture = "Portrait_Soviet_Filipp_Oktyabrsky.dds"
			traits = {
				ironside
			}
			skill = 2
		}
		create_navy_leader = {
			name = "Gordey Levchenko"
			id = 406
			picture = "Portrait_Soviet_Gordey_Levchenko.dds"
			traits = {
				#
			}
			skill = 2
		}
		create_navy_leader = {
			name = "Vladimir Kasatonov"
			id = 403
			picture = "Portrait_Soviet_Vladimir_Kasatonov.dds"
			traits = {
				seawolf
			}
			skill = 2
		}
# Variants
	create_equipment_variant = {
		name = "Series I Debakrist"
		type = submarine_1
		upgrades = {
			ship_reliability_upgrade = 1
			sub_engine_upgrade = 1
			sub_stealth_upgrade = 1
			sub_torpedo_upgrade = 1
		}
		obsolete = yes
	}
	create_equipment_variant = {
		name = "Series IX Srednyaya"
		type = submarine_2
		upgrades = {
			ship_reliability_upgrade = 1
			sub_engine_upgrade = 1
			sub_stealth_upgrade = 1
			sub_torpedo_upgrade = 1
		}
	}
	create_equipment_variant = {
		name = "Leningrad & Minsk Class"
		type = destroyer_1
		upgrades = {
			ship_torpedo_upgrade = 3
			destroyer_engine_upgrade = 3
			ship_ASW_upgrade = 3
			ship_anti_air_upgrade = 3
		}
	}
set_convoys = 50
add_ideas = {
	trotskyite_plot
	home_of_revolution
}
add_namespace = {
	name = "unit_leader_sov"
	type = unit_leader
}