SS_demands = { 
	allowed = {
		original_tag = GER
	}

	visible = {
		has_idea = heinrich_himmler
	}
}
SS_recruitment = { 
	allowed = {
		original_tag = GER
	}

	available = {
		has_government = right-wing
	}

	visible = {
		has_idea = heinrich_himmler
	}
}
wehrmacht_demands = {
	allowed = {
		original_tag = GER
	}
}
